Practice-Set-3.knit
…
library(readr)
library(dplyr)
library(ggplot2)

Problem 1

file_path <- "D:/Education/MS DS NEU/IDMP/Assignments/HW3/HW3/epa-aqi-data-annual"
data <- list.files(file_path,pattern = "*.csv",full.names = TRUE)
df <- lapply(data, read_csv) %>% bind_rows()
df

## # A tibble: 38,511 x 19
##    State   County      Year `Days with AQI` `Good Days` `Moderate Days`
##    <chr>   <chr>      <dbl>           <dbl>       <dbl>           <dbl>
##  1 Alabama Autauga     1980             179         122              35
##  2 Alabama Colbert     1980             274         127              45
##  3 Alabama Jackson     1980             366          85             110
##  4 Alabama Jefferson   1980             343         171             109
##  5 Alabama Lauderdale  1980             274         120              58
##  6 Alabama Madison     1980             344         154             125
##  7 Alabama Mobile      1980             286         180              62
##  8 Alabama Monroe      1980              90          63              14
##  9 Alabama Morgan      1980             332         207              93
## 10 Alabama Tuscaloosa  1980             132          94              28
## # ... with 38,501 more rows, and 13 more variables:
## #   Unhealthy for Sensitive Groups Days <dbl>, Unhealthy Days <dbl>,
## #   Very Unhealthy Days <dbl>, Hazardous Days <dbl>, Max AQI <dbl>,
## #   90th Percentile AQI <dbl>, Median AQI <dbl>, Days CO <dbl>, Days NO2 <dbl>,
## #   Days Ozone <dbl>, Days SO2 <dbl>, Days PM2.5 <dbl>, Days PM10 <dbl>
…
